Introduction to the msSPChelpR package - from long dataset to SIR analyses
…
#This dataset is in long format, so each tumor is a separate row in the data
us_second_cancer
#> # A tibble: 113,999 x 15
#>    fake_id SEQ_NUM registry   sex   race  datebirth  t_datediag t_site_icd t_dco
#>    <chr>     <int> <chr>      <chr> <chr> <date>     <date>     <chr>      <chr>
#>  1 100004        1 SEER Reg ~ Male  White 1926-01-01 1992-07-15 C50        hist~
#>  2 100004        2 SEER Reg ~ Male  White 1926-01-01 2004-01-15 C54        hist~
#>  3 100004        3 SEER Reg ~ Male  White 1926-01-01 2006-06-15 C34        hist~
#>  4 100004        4 SEER Reg ~ Male  White 1926-01-01 2018-06-15 C14        DCO ~
#>  5 100034        1 SEER Reg ~ Male  White 1979-01-01 2000-06-15 C50        hist~
#>  6 100037        1 SEER Reg ~ Fema~ White 1938-01-01 1996-01-15 C54        hist~
#>  7 100038        1 SEER Reg ~ Male  White 1989-01-01 1991-04-15 C50        hist~
#>  8 100038        2 SEER Reg ~ Male  White 1989-01-01 2000-03-15 C80        hist~
#>  9 100039        1 SEER Reg ~ Fema~ White 1946-01-01 2003-08-15 C50        hist~
#> 10 100039        2 SEER Reg ~ Fema~ White 1946-01-01 2011-04-15 C34        hist~
#> # ... with 113,989 more rows, and 6 more variables: fc_age <int>,
#> #   datedeath <date>, p_alive <chr>, p_dodmin <date>, fc_agegroup <chr>,
#> #   t_yeardiag <chr>
…
filtered_usdata <- us_second_cancer %>%
  #filter according to above detected ids with any lung cancer diagnosis
  filter(fake_id %in% ids) %>%
   arrange(fake_id)

filtered_usdata
#> # A tibble: 62,661 x 15
#>    fake_id SEQ_NUM registry   sex   race  datebirth  t_datediag t_site_icd t_dco
#>    <chr>     <int> <chr>      <chr> <chr> <date>     <date>     <chr>      <chr>
#>  1 100004        1 SEER Reg ~ Male  White 1926-01-01 1992-07-15 C50        hist~
#>  2 100004        2 SEER Reg ~ Male  White 1926-01-01 2004-01-15 C54        hist~
#>  3 100004        3 SEER Reg ~ Male  White 1926-01-01 2006-06-15 C34        hist~
#>  4 100004        4 SEER Reg ~ Male  White 1926-01-01 2018-06-15 C14        DCO ~
#>  5 100039        1 SEER Reg ~ Fema~ White 1946-01-01 2003-08-15 C50        hist~
#>  6 100039        2 SEER Reg ~ Fema~ White 1946-01-01 2011-04-15 C34        hist~
#>  7 100039        3 SEER Reg ~ Fema~ White 1946-01-01 2018-01-15 C80        hist~
#>  8 100073        1 SEER Reg ~ Male  White 1960-01-01 1993-11-15 C44        hist~
#>  9 100073        2 SEER Reg ~ Male  White 1960-01-01 2003-12-15 C34        hist~
#> 10 100143        1 SEER Reg ~ Male  White 1944-01-01 1992-03-15 C50        hist~
#> # ... with 62,651 more rows, and 6 more variables: fc_age <int>,
#> #   datedeath <date>, p_alive <chr>, p_dodmin <date>, fc_agegroup <chr>,
#> #   t_yeardiag <chr>

Step 3 - Renumber time_id

renumbered_usdata <- filtered_usdata %>%
  renumber_time_id(new_time_id_var = "t_tumid", 
                   dattype = "seer",
                   case_id_var = "fake_id")

renumbered_usdata %>%
   select(fake_id, sex, t_site_icd, t_datediag, t_tumid)
#> # A tibble: 62,661 x 5
#>    fake_id sex    t_site_icd t_datediag t_tumid
#>    <chr>   <chr>  <chr>      <date>       <int>
#>  1 100004  Male   C50        1992-07-15       1
#>  2 100004  Male   C54        2004-01-15       2
#>  3 100004  Male   C34        2006-06-15       3
#>  4 100004  Male   C14        2018-06-15       4
#>  5 100039  Female C50        2003-08-15       1
#>  6 100039  Female C34        2011-04-15       2
#>  7 100039  Female C80        2018-01-15       3
#>  8 100073  Male   C44        1993-11-15       1
#>  9 100073  Male   C34        2003-12-15       2
#> 10 100143  Male   C50        1992-03-15       1
#> # ... with 62,651 more rows

Step 4 - Reshape to wide dataset

usdata_wide <- renumbered_usdata %>%
  reshape_wide_tidyr(case_id_var = "fake_id", time_id_var = "t_tumid", timevar_max = 10)

#now the data is in the wide format as required by many package functions. 
#This means, each case is a row and several tumors per case ID are 
#add new columns to the data using the time_id as column name suffix.
usdata_wide
#> # A tibble: 31,997 x 127
#>    fake_id SEQ_NUM.1 registry.1            sex.1 race.1 datebirth.1 t_datediag.1
#>    <chr>       <int> <chr>                 <chr> <chr>  <date>      <date>      
#>  1 100004          1 SEER Reg 20 - Detroi~ Male  White  1926-01-01  1992-07-15  
#>  2 100039          1 SEER Reg 02 - Connec~ Fema~ White  1946-01-01  2003-08-15  
#>  3 100073          1 SEER Reg 01 - San Fr~ Male  White  1960-01-01  1993-11-15  
#>  4 100143          1 SEER Reg 02 - Connec~ Male  White  1944-01-01  1992-03-15  
#>  5 100182          1 SEER Reg 02 - Connec~ Male  Other  1927-01-01  1991-09-15  
#>  6 100197          1 SEER Reg 02 - Connec~ Fema~ White  1945-01-01  2012-06-15  
#>  7 100208          1 SEER Reg 02 - Connec~ Male  White  1970-01-01  2019-11-15  
#>  8 100230          1 SEER Reg 01 - San Fr~ Male  White  1947-01-01  1992-11-15  
#>  9 100234          1 SEER Reg 01 - San Fr~ Male  White  1988-01-01  2010-02-15  
#> 10 100266          1 SEER Reg 01 - San Fr~ Fema~ White  1956-01-01  2010-07-15  
#> # ... with 31,987 more rows, and 120 more variables: t_site_icd.1 <chr>,
#> #   t_dco.1 <chr>, fc_age.1 <int>, datedeath.1 <date>, p_alive.1 <chr>,
#> #   p_dodmin.1 <date>, fc_agegroup.1 <chr>, t_yeardiag.1 <chr>,
#> #   SEQ_NUM.2 <int>, registry.2 <chr>, sex.2 <chr>, race.2 <chr>,
#> #   datebirth.2 <date>, t_datediag.2 <date>, t_site_icd.2 <chr>, t_dco.2 <chr>,
#> #   fc_age.2 <int>, datedeath.2 <date>, p_alive.2 <chr>, p_dodmin.2 <date>,
#> #   fc_agegroup.2 <chr>, t_yeardiag.2 <chr>, SEQ_NUM.3 <int>, ...

Step 5 - Recalculate p_spc

usdata_wide <- usdata_wide %>%
  dplyr::mutate(p_spc = dplyr::case_when(is.na(t_site_icd.2)   ~ "No SPC",
                         !is.na(t_site_icd.2)           ~ "SPC developed",
                         TRUE ~ NA_character_)) %>%
  #create the same information as numeric variable count_spc
  dplyr::mutate(count_spc = dplyr::case_when(is.na(t_site_icd.2)   ~ 1,
                            TRUE ~ 0))
usdata_wide %>%
   dplyr::select(fake_id, sex.1, p_spc, count_spc, t_site_icd.1, 
                 t_datediag.1, t_site_icd.2, t_datediag.2)
#> # A tibble: 31,997 x 8
#>    fake_id sex.1  p_spc         count_spc t_site_icd.1 t_datediag.1 t_site_icd.2
#>    <chr>   <chr>  <chr>             <dbl> <chr>        <date>       <chr>       
#>  1 100004  Male   SPC developed         0 C50          1992-07-15   C54         
#>  2 100039  Female SPC developed         0 C50          2003-08-15   C34         
#>  3 100073  Male   SPC developed         0 C44          1993-11-15   C34         
#>  4 100143  Male   SPC developed         0 C50          1992-03-15   C34         
#>  5 100182  Male   SPC developed         0 C18          1991-09-15   C34         
#>  6 100197  Female SPC developed         0 C34          2012-06-15   C50         
#>  7 100208  Male   No SPC                1 C34          2019-11-15   <NA>        
#>  8 100230  Male   SPC developed         0 C44          1992-11-15   C34         
#>  9 100234  Male   No SPC                1 C34          2010-02-15   <NA>        
#> 10 100266  Female No SPC                1 C34          2010-07-15   <NA>        
#> # ... with 31,987 more rows, and 1 more variable: t_datediag.2 <date>
…
usdata_wide %>%
   dplyr::select(fake_id, p_status, p_alive.1, datedeath.1, t_site_icd.1, t_datediag.1, 
                 t_site_icd.2, t_datediag.2)
#> # A tibble: 31,997 x 8
#>    fake_id p_status p_alive.1 datedeath.1 t_site_icd.1 t_datediag.1 t_site_icd.2
#>    <chr>   <fct>    <chr>     <date>      <chr>        <date>       <chr>       
#>  1 100004  Patient~ Alive     NA          C50          1992-07-15   C54         
#>  2 100039  Patient~ Alive     NA          C50          2003-08-15   C34         
#>  3 100073  Patient~ Dead      2005-06-01  C44          1993-11-15   C34         
#>  4 100143  Patient~ Alive     NA          C50          1992-03-15   C34         
#>  5 100182  Patient~ Dead      2007-05-01  C18          1991-09-15   C34         
#>  6 100197  Patient~ Alive     NA          C34          2012-06-15   C50         
#>  7 100208  NA - Pa~ Alive     NA          C34          2019-11-15   <NA>        
#>  8 100230  Patient~ Dead      2008-05-01  C44          1992-11-15   C34         
#>  9 100234  Patient~ Dead      2015-07-01  C34          2010-02-15   <NA>        
#> 10 100266  Patient~ Alive     NA          C34          2010-07-15   <NA>        
#> # ... with 31,987 more rows, and 1 more variable: t_datediag.2 <date>
…
#> 5 Dead      Patient alive after FC (with or without following SPC after e~   867
#> 6 Dead      Patient alive after SPC                                         1361
#> 7 Dead      Patient dead after FC                                           6230
#> 8 Dead      Patient dead after SPC                                          5362
#> 9 Dead      NA - Patient did not develop cancer before end of FU              68
#> # A tibble: 6 x 2
#>   p_status                                                                   n
#>   <fct>                                                                  <int>
#> 1 Patient alive after FC (with or without following SPC after end of FU)  6807
#> 2 Patient alive after SPC                                                12677
#> 3 Patient dead after FC                                                   6230
#> 4 Patient dead after SPC                                                  5362
#> 5 NA - Patient not born before end of FU                                     4
#> 6 NA - Patient did not develop cancer before end of FU                     917
#> # A tibble: 31,997 x 130
#>    fake_id SEQ_NUM.1 registry.1            sex.1 race.1 datebirth.1 t_datediag.1
#>    <chr>       <int> <chr>                 <chr> <chr>  <date>      <date>      
#>  1 100004          1 SEER Reg 20 - Detroi~ Male  White  1926-01-01  1992-07-15  
#>  2 100039          1 SEER Reg 02 - Connec~ Fema~ White  1946-01-01  2003-08-15  
#>  3 100073          1 SEER Reg 01 - San Fr~ Male  White  1960-01-01  1993-11-15  
#>  4 100143          1 SEER Reg 02 - Connec~ Male  White  1944-01-01  1992-03-15  
#>  5 100182          1 SEER Reg 02 - Connec~ Male  Other  1927-01-01  1991-09-15  
#>  6 100197          1 SEER Reg 02 - Connec~ Fema~ White  1945-01-01  2012-06-15  
#>  7 100208          1 SEER Reg 02 - Connec~ Male  White  1970-01-01  2019-11-15  
#>  8 100230          1 SEER Reg 01 - San Fr~ Male  White  1947-01-01  1992-11-15  
#>  9 100234          1 SEER Reg 01 - San Fr~ Male  White  1988-01-01  2010-02-15  
#> 10 100266          1 SEER Reg 01 - San Fr~ Fema~ White  1956-01-01  2010-07-15  
#> # ... with 31,987 more rows, and 123 more variables: t_site_icd.1 <chr>,
#> #   t_dco.1 <chr>, fc_age.1 <int>, datedeath.1 <date>, p_alive.1 <chr>,
#> #   p_dodmin.1 <date>, fc_agegroup.1 <chr>, t_yeardiag.1 <chr>,
#> #   SEQ_NUM.2 <int>, registry.2 <chr>, sex.2 <chr>, race.2 <chr>,
#> #   datebirth.2 <date>, t_datediag.2 <date>, t_site_icd.2 <chr>, t_dco.2 <chr>,
#> #   fc_age.2 <int>, datedeath.2 <date>, p_alive.2 <chr>, p_dodmin.2 <date>,
#> #   fc_agegroup.2 <chr>, t_yeardiag.2 <chr>, SEQ_NUM.3 <int>, ...
…
usdata_wide %>%
   dplyr::select(fake_id, p_status, p_futimeyrs, p_alive.1, datedeath.1, t_datediag.1, t_datediag.2)
#> # A tibble: 31,012 x 7
#>    fake_id p_status  p_futimeyrs p_alive.1 datedeath.1 t_datediag.1 t_datediag.2
#>    <chr>   <fct>           <dbl> <chr>     <date>      <date>       <date>      
#>  1 100004  Patient ~       11.5  Alive     NA          1992-07-15   2004-01-15  
#>  2 100039  Patient ~        7.67 Alive     NA          2003-08-15   2011-04-15  
#>  3 100073  Patient ~       10.1  Dead      2005-06-01  1993-11-15   2003-12-15  
#>  4 100143  Patient ~        3.33 Alive     NA          1992-03-15   1995-07-15  
#>  5 100182  Patient ~        7.08 Dead      2007-05-01  1991-09-15   1998-10-15  
#>  6 100197  Patient ~        4.83 Alive     NA          2012-06-15   2017-04-15  
#>  7 100230  Patient ~       11.0  Dead      2008-05-01  1992-11-15   2003-11-15  
#>  8 100234  Patient ~        5.37 Dead      2015-07-01  2010-02-15   NA          
#>  9 100266  Patient ~        7.46 Alive     NA          2010-07-15   NA          
#> 10 100274  Patient ~        2.38 Dead      2006-06-01  2004-01-15   NA          
#> # ... with 31,002 more rows
…
